…
## Exercise 14

There are 371 unknown artists. After that, the artist with the most
pieces is Emma Gillies, with 174. I don’t know them.

``` r
auto %>%
  count(artist) %>%
  arrange(desc(n))
```

    ## # A tibble: 1,203 × 2
    ##    artist               n
    ##    <chr>            <int>
    ##  1 Unknown            371
    ##  2 Emma Gillies       174
    ##  3 <NA>               108
    ##  4 Ann F Ward          23
    ##  5 John Bellany        22
    ##  6 Zygmunt Bukowski    21
    ##  7 Boris Bućan         17
    ##  8 Marjorie Wallace    17
    ##  9 Gordon Bryce        16
    ## 10 William Gillon      16
    ## # ℹ 1,193 more rows
…
